{
  "openapi": "3.0.3, ",
  "info": {
    "title": "openapi",
    "description": "demo openapi app",
    "version": "alpha-0.0.1"
  },
  "paths": {
    "/api/bookings": {
      "get": {
        "operationId": "makeBooking",
        "x-vertx-event-bus": "booking_manager.app",
        "parameters": [
          {
            "name": "email",
            "in": "query",
            "required": true,
            "description": "Matches exactly the email",
            "style": "simple",
            "explode": false,
            "schema": {
              "type": "string",
              "$rel": "#/bookings/components/booking"
            },
            "$ref": "#/bookings/components/booking"
          },
          {
            "name": "lastName",
            "required": true,
            "in": "query",
            "description": "Matches exactly the lastName",
            "style": "simple",
            "explode": false,
            "schema": {
              "type": "string",
              "$rel": "#/bookings/components/schemas/booking"
            },
            "$ref": "#/bookings/components/schemas/bookings"
          },
          {
            "name": "firstName",
            "required": true,
            "in": "query",
            "description": "user name for registration",
            "style": "simple",
            "explode": false,
            "schema": {
              "type": "string",
              "$rel": "#/bookings/components/schemas/booking"
            },
            "$ref": ""
          }
        ],
        "$rel": "#/bookings/components/schemas/booking"
      },
        "responses": {
          "200": {
            "description": "OK",
            "content": {
              "application/json" : {
                "schema": {
                  "type": "object",
                  "readOnly": true,
                  "writeOnly": true
                }
              }
            },
            "$ref": "#/bookings /component/schemas/booking/responses"
          }
      }
      }
    }
  }
}
